module code.gitea.io/tea

go 1.18

require (
	code.gitea.io/gitea-vet v0.2.1
	code.gitea.io/sdk/gitea v0.15.1-0.20230402213053-7511c6d3cd04
	gitea.com/noerw/unidiff-comments v0.0.0-20220822113322-50f4daa0e35c
	github.com/AlecAivazis/survey/v2 v2.3.6
	github.com/adrg/xdg v0.4.0
	github.com/araddon/dateparse v0.0.0-20210429162001-6b43995a97de
	github.com/charmbracelet/glamour v0.5.0
	github.com/enescakir/emoji v1.0.0
	github.com/go-git/go-git/v5 v5.4.2
	github.com/muesli/termenv v0.12.0
	github.com/olekukonko/tablewriter v0.0.5
	github.com/skratchdot/open-golang v0.0.0-20200116055534-eef842397966
	github.com/stretchr/testify v1.7.0
	github.com/urfave/cli/v2 v2.16.3
	golang.org/x/crypto v0.0.0-20220926161630-eccd6366d1be
	gopkg.in/yaml.v2 v2.4.0
)

require (
	github.com/Microsoft/go-winio v0.5.2 // indirect
	github.com/ProtonMail/go-crypto v0.0.0-20220824120805-4b6e5c587895 // indirect
	github.com/acomagu/bufpipe v1.0.3 // indirect
	github.com/alecthomas/chroma v0.10.0 // indirect
	github.com/aymerick/douceur v0.2.0 // indirect
	github.com/cloudflare/circl v1.2.0 // indirect
	github.com/cpuguy83/go-md2man/v2 v2.0.2 // indirect
	github.com/davecgh/go-spew v1.1.1 // indirect
	github.com/davidmz/go-pageant v1.0.2 // indirect
	github.com/dlclark/regexp2 v1.7.0 // indirect
	github.com/emirpasic/gods v1.18.1 // indirect
	github.com/go-fed/httpsig v1.1.0 // indirect
	github.com/go-git/gcfg v1.5.0 // indirect
	github.com/go-git/go-billy/v5 v5.3.1 // indirect
	github.com/gorilla/css v1.0.0 // indirect
	github.com/hashicorp/go-version v1.6.0 // indirect
	github.com/imdario/mergo v0.3.13 // indirect
	github.com/jbenet/go-context v0.0.0-20150711004518-d14ea06fba99 // indirect
	github.com/kballard/go-shellquote v0.0.0-20180428030007-95032a82bc51 // indirect
	github.com/kevinburke/ssh_config v1.2.0 // indirect
	github.com/lucasb-eyer/go-colorful v1.2.0 // indirect
	github.com/mattn/go-colorable v0.1.13 // indirect
	github.com/mattn/go-isatty v0.0.16 // indirect
	github.com/mattn/go-runewidth v0.0.13 // indirect
	github.com/mgutz/ansi v0.0.0-20200706080929-d51e80ef957d // indirect
	github.com/microcosm-cc/bluemonday v1.0.20 // indirect
	github.com/mitchellh/go-homedir v1.1.0 // indirect
	github.com/muesli/reflow v0.3.0 // indirect
	github.com/pmezard/go-difflib v1.0.0 // indirect
	github.com/rivo/uniseg v0.4.2 // indirect
	github.com/russross/blackfriday/v2 v2.1.0 // indirect
	github.com/sergi/go-diff v1.2.0 // indirect
	github.com/xanzy/ssh-agent v0.3.2 // indirect
	github.com/xrash/smetrics v0.0.0-20201216005158-039620a65673 // indirect
	github.com/yuin/goldmark v1.4.14 // indirect
	github.com/yuin/goldmark-emoji v1.0.1 // indirect
	golang.org/x/net v0.0.0-20220909164309-bea034e7d591 // indirect
	golang.org/x/sys v0.0.0-20220926163933-8cfa568d3c25 // indirect
	golang.org/x/term v0.0.0-20220722155259-a9ba230a4035 // indirect
	golang.org/x/text v0.3.7 // indirect
	golang.org/x/tools v0.1.12 // indirect
	gopkg.in/warnings.v0 v0.1.2 // indirect
	gopkg.in/yaml.v3 v3.0.1 // indirect
)
